[api-updater (non-obsolete-error-filter)] 23/02/2022 16.07.04 : Starting C:/Program Files/Unity/Hub/Editor/2020.3.27f1/Editor/Data/Tools/ScriptUpdater/APIUpdater.NonObsoleteApiUpdaterDetector.exe
[api-updater (non-obsolete-error-filter)] 
----------------------------------
jit/startup time      : 1002,8912ms
moved types parse time: 54ms
candidates parse time : 1ms
C# parse time         : 667ms
candidates check time : 34ms
console write time    : 0ms

[api-updater (non-obsolete-error-filter)] 23/02/2022 16.17.17 : Starting C:/Program Files/Unity/Hub/Editor/2020.3.27f1/Editor/Data/Tools/ScriptUpdater/APIUpdater.NonObsoleteApiUpdaterDetector.exe
[api-updater (non-obsolete-error-filter)] 
----------------------------------
jit/startup time      : 97,2997ms
moved types parse time: 52ms
candidates parse time : 1ms
C# parse time         : 204ms
candidates check time : 30ms
console write time    : 0ms

[api-updater (non-obsolete-error-filter)] 25/02/2022 15.53.51 : Starting C:/Program Files/Unity/Hub/Editor/2020.3.27f1/Editor/Data/Tools/ScriptUpdater/APIUpdater.NonObsoleteApiUpdaterDetector.exe
[api-updater (non-obsolete-error-filter)] 
----------------------------------
jit/startup time      : 1402,931ms
moved types parse time: 54ms
candidates parse time : 1ms
C# parse time         : 671ms
candidates check time : 44ms
console write time    : 1ms

[api-updater (non-obsolete-error-filter)] 01/03/2022 11.57.58 : Starting C:/Program Files/Unity/Hub/Editor/2020.3.27f1/Editor/Data/Tools/ScriptUpdater/APIUpdater.NonObsoleteApiUpdaterDetector.exe
[api-updater (non-obsolete-error-filter)] 
----------------------------------
jit/startup time      : 5739,6918ms
moved types parse time: 184ms
candidates parse time : 1ms
C# parse time         : 937ms
candidates check time : 151ms
console write time    : 21ms

[api-updater (non-obsolete-error-filter)] 01/03/2022 12.02.43 : Starting C:/Program Files/Unity/Hub/Editor/2020.3.27f1/Editor/Data/Tools/ScriptUpdater/APIUpdater.NonObsoleteApiUpdaterDetector.exe
[api-updater (non-obsolete-error-filter)] 
----------------------------------
jit/startup time      : 1037,569ms
moved types parse time: 60ms
candidates parse time : 1ms
C# parse time         : 693ms
candidates check time : 30ms
console write time    : 0ms

[api-updater (non-obsolete-error-filter)] 01/03/2022 12.59.37 : Starting C:/Program Files/Unity/Hub/Editor/2020.3.27f1/Editor/Data/Tools/ScriptUpdater/APIUpdater.NonObsoleteApiUpdaterDetector.exe
[api-updater (non-obsolete-error-filter)] 
----------------------------------
jit/startup time      : 253,5675ms
moved types parse time: 58ms
candidates parse time : 1ms
C# parse time         : 193ms
candidates check time : 31ms
console write time    : 0ms

[api-updater (non-obsolete-error-filter)] 02/03/2022 16.34.35 : Starting C:/Program Files/Unity/Hub/Editor/2020.3.27f1/Editor/Data/Tools/ScriptUpdater/APIUpdater.NonObsoleteApiUpdaterDetector.exe
[api-updater (non-obsolete-error-filter)] 
----------------------------------
jit/startup time      : 1187,3096ms
moved types parse time: 49ms
candidates parse time : 1ms
C# parse time         : 659ms
candidates check time : 52ms
console write time    : 2ms

[api-updater (non-obsolete-error-filter)] 02/03/2022 18.12.27 : Starting C:/Program Files/Unity/Hub/Editor/2020.3.27f1/Editor/Data/Tools/ScriptUpdater/APIUpdater.NonObsoleteApiUpdaterDetector.exe
[api-updater (non-obsolete-error-filter)] 
----------------------------------
jit/startup time      : 94,0568ms
moved types parse time: 53ms
candidates parse time : 1ms
C# parse time         : 192ms
candidates check time : 41ms
console write time    : 0ms

[api-updater (non-obsolete-error-filter)] 08/03/2022 15.40.07 : Starting C:/Program Files/Unity/Hub/Editor/2020.3.27f1/Editor/Data/Tools/ScriptUpdater/APIUpdater.NonObsoleteApiUpdaterDetector.exe
[api-updater (non-obsolete-error-filter)] 
----------------------------------
jit/startup time      : 1813,2965ms
moved types parse time: 55ms
candidates parse time : 1ms
C# parse time         : 689ms
candidates check time : 31ms
console write time    : 1ms

[api-updater (non-obsolete-error-filter)] 09/03/2022 14.00.24 : Starting C:/Program Files/Unity/Hub/Editor/2020.3.27f1/Editor/Data/Tools/ScriptUpdater/APIUpdater.NonObsoleteApiUpdaterDetector.exe
[api-updater (non-obsolete-error-filter)] 
----------------------------------
jit/startup time      : 858,7835ms
moved types parse time: 56ms
candidates parse time : 1ms
C# parse time         : 653ms
candidates check time : 35ms
console write time    : 0ms

[api-updater (non-obsolete-error-filter)] 10/03/2022 17.37.23 : Starting C:/Program Files/Unity/Hub/Editor/2020.3.27f1/Editor/Data/Tools/ScriptUpdater/APIUpdater.NonObsoleteApiUpdaterDetector.exe
[api-updater (non-obsolete-error-filter)] 
----------------------------------
jit/startup time      : 767,4377ms
moved types parse time: 51ms
candidates parse time : 1ms
C# parse time         : 642ms
candidates check time : 32ms
console write time    : 0ms

[api-updater (non-obsolete-error-filter)] 10/03/2022 17.37.50 : Starting C:/Program Files/Unity/Hub/Editor/2020.3.27f1/Editor/Data/Tools/ScriptUpdater/APIUpdater.NonObsoleteApiUpdaterDetector.exe
[api-updater (non-obsolete-error-filter)] 
----------------------------------
jit/startup time      : 77,0015ms
moved types parse time: 52ms
candidates parse time : 1ms
C# parse time         : 192ms
candidates check time : 34ms
console write time    : 0ms

[api-updater (non-obsolete-error-filter)] 10/03/2022 17.38.05 : Starting C:/Program Files/Unity/Hub/Editor/2020.3.27f1/Editor/Data/Tools/ScriptUpdater/APIUpdater.NonObsoleteApiUpdaterDetector.exe
[api-updater (non-obsolete-error-filter)] 
----------------------------------
jit/startup time      : 78,0359ms
moved types parse time: 51ms
candidates parse time : 1ms
C# parse time         : 185ms
candidates check time : 35ms
console write time    : 0ms

[api-updater (non-obsolete-error-filter)] 10/03/2022 17.39.17 : Starting C:/Program Files/Unity/Hub/Editor/2020.3.27f1/Editor/Data/Tools/ScriptUpdater/APIUpdater.NonObsoleteApiUpdaterDetector.exe
[api-updater (non-obsolete-error-filter)] 
----------------------------------
jit/startup time      : 82,0087ms
moved types parse time: 53ms
candidates parse time : 1ms
C# parse time         : 233ms
candidates check time : 36ms
console write time    : 0ms

[api-updater (non-obsolete-error-filter)] 14/03/2022 13.51.56 : Starting C:/Program Files/Unity/Hub/Editor/2020.3.27f1/Editor/Data/Tools/ScriptUpdater/APIUpdater.NonObsoleteApiUpdaterDetector.exe
[api-updater (non-obsolete-error-filter)] 
----------------------------------
jit/startup time      : 1300,7662ms
moved types parse time: 69ms
candidates parse time : 1ms
C# parse time         : 780ms
candidates check time : 55ms
console write time    : 0ms

[api-updater (non-obsolete-error-filter)] 14/03/2022 15.24.39 : Starting C:/Program Files/Unity/Hub/Editor/2020.3.27f1/Editor/Data/Tools/ScriptUpdater/APIUpdater.NonObsoleteApiUpdaterDetector.exe
[api-updater (non-obsolete-error-filter)] 
----------------------------------
jit/startup time      : 223,0015ms
moved types parse time: 57ms
candidates parse time : 1ms
C# parse time         : 222ms
candidates check time : 55ms
console write time    : 0ms

[api-updater (non-obsolete-error-filter)] 17/03/2022 15.01.27 : Starting C:/Program Files/Unity/Hub/Editor/2020.3.27f1/Editor/Data/Tools/ScriptUpdater/APIUpdater.NonObsoleteApiUpdaterDetector.exe
[api-updater (non-obsolete-error-filter)] 
----------------------------------
jit/startup time      : 2157,9729ms
moved types parse time: 56ms
candidates parse time : 1ms
C# parse time         : 681ms
candidates check time : 65ms
console write time    : 0ms

